%YAML 1.1
%TAG !u! tag:unity3d.com,2011:
--- !u!29 &1
OcclusionCullingSettings:
  m_ObjectHideFlags: 0
  serializedVersion: 2
  m_OcclusionBakeSettings:
    smallestOccluder: 5
    smallestHole: 0.25
    backfaceThreshold: 100
  m_SceneGUID: 00000000000000000000000000000000
  m_OcclusionCullingData: {fileID: 0}
--- !u!104 &2
RenderSettings:
  m_ObjectHideFlags: 0
  serializedVersion: 9
  m_Fog: 0
  m_FogColor: {r: 0.5, g: 0.5, b: 0.5, a: 1}
  m_FogMode: 3
  m_FogDensity: 0.01
  m_LinearFogStart: 0
  m_LinearFogEnd: 300
  m_AmbientSkyColor: {r: 0.212, g: 0.227, b: 0.259, a: 1}
  m_AmbientEquatorColor: {r: 0.114, g: 0.125, b: 0.133, a: 1}
  m_AmbientGroundColor: {r: 0.047, g: 0.043, b: 0.035, a: 1}
  m_AmbientIntensity: 1
  m_AmbientMode: 0
  m_SubtractiveShadowColor: {r: 0.42, g: 0.478, b: 0.627, a: 1}
  m_SkyboxMaterial: {fileID: 10304, guid: 0000000000000000f000000000000000, type: 0}
  m_HaloStrength: 0.5
  m_FlareStrength: 1
  m_FlareFadeSpeed: 3
  m_HaloTexture: {fileID: 0}
  m_SpotCookie: {fileID: 10001, guid: 0000000000000000e000000000000000, type: 0}
  m_DefaultReflectionMode: 0
  m_DefaultReflectionResolution: 128
  m_ReflectionBounces: 1
  m_ReflectionIntensity: 1
  m_CustomReflection: {fileID: 0}
  m_Sun: {fileID: 705507994}
  m_IndirectSpecularColor: {r: 0.44657898, g: 0.4964133, b: 0.5748178, a: 1}
  m_UseRadianceAmbientProbe: 0
--- !u!157 &3
LightmapSettings:
  m_ObjectHideFlags: 0
  serializedVersion: 12
  m_GIWorkflowMode: 1
  m_GISettings:
    serializedVersion: 2
    m_BounceScale: 1
    m_IndirectOutputScale: 1
    m_AlbedoBoost: 1
    m_EnvironmentLightingMode: 0
    m_EnableBakedLightmaps: 1
    m_EnableRealtimeLightmaps: 0
  m_LightmapEditorSettings:
    serializedVersion: 12
    m_Resolution: 2
    m_BakeResolution: 40
    m_AtlasSize: 1024
    m_AO: 0
    m_AOMaxDistance: 1
    m_CompAOExponent: 1
    m_CompAOExponentDirect: 0
    m_ExtractAmbientOcclusion: 0
    m_Padding: 2
    m_LightmapParameters: {fileID: 0}
    m_LightmapsBakeMode: 1
    m_TextureCompression: 1
    m_FinalGather: 0
    m_FinalGatherFiltering: 1
    m_FinalGatherRayCount: 256
    m_ReflectionCompression: 2
    m_MixedBakeMode: 2
    m_BakeBackend: 1
    m_PVRSampling: 1
    m_PVRDirectSampleCount: 32
    m_PVRSampleCount: 500
    m_PVRBounces: 2
    m_PVREnvironmentSampleCount: 500
    m_PVREnvironmentReferencePointCount: 2048
    m_PVRFilteringMode: 2
    m_PVRDenoiserTypeDirect: 0
    m_PVRDenoiserTypeIndirect: 0
    m_PVRDenoiserTypeAO: 0
    m_PVRFilterTypeDirect: 0
    m_PVRFilterTypeIndirect: 0
    m_PVRFilterTypeAO: 0
    m_PVREnvironmentMIS: 0
    m_PVRCulling: 1
    m_PVRFilteringGaussRadiusDirect: 1
    m_PVRFilteringGaussRadiusIndirect: 5
    m_PVRFilteringGaussRadiusAO: 2
    m_PVRFilteringAtrousPositionSigmaDirect: 0.5
    m_PVRFilteringAtrousPositionSigmaIndirect: 2
    m_PVRFilteringAtrousPositionSigmaAO: 1
    m_ExportTrainingData: 0
    m_TrainingDataDestination: TrainingData
    m_LightProbeSampleCountMultiplier: 4
  m_LightingDataAsset: {fileID: 0}
  m_LightingSettings: {fileID: 0}
--- !u!196 &4
NavMeshSettings:
  serializedVersion: 2
  m_ObjectHideFlags: 0
  m_BuildSettings:
    serializedVersion: 2
    agentTypeID: 0
    agentRadius: 0.5
    agentHeight: 2
    agentSlope: 45
    agentClimb: 0.4
    ledgeDropHeight: 0
    maxJumpAcrossDistance: 0
    minRegionArea: 2
    manualCellSize: 0
    cellSize: 0.16666667
    manualTileSize: 0
    tileSize: 256
    accuratePlacement: 0
    maxJobWorkers: 0
    preserveTilesOutsideBounds: 0
    debug:
      m_Flags: 0
  m_NavMeshData: {fileID: 0}
--- !u!95 &72604608 stripped
Animator:
  m_CorrespondingSourceObject: {fileID: 1490630785363937436, guid: 3721399d4363f1ee8a87dcf026a5f6ae, type: 3}
  m_PrefabInstance: {fileID: 8315956545888933988}
  m_PrefabAsset: {fileID: 0}
--- !u!95 &411034982 stripped
Animator:
  m_CorrespondingSourceObject: {fileID: 4653263777037206315, guid: c20b9390f02e1c988bb5720fadc0eb7c, type: 3}
  m_PrefabInstance: {fileID: 3967033776399610217}
  m_PrefabAsset: {fileID: 0}
--- !u!1001 &457168670
PrefabInstance:
  m_ObjectHideFlags: 0
  serializedVersion: 2
  m_Modification:
    m_TransformParent: {fileID: 760367029}
    m_Modifications:
    - target: {fileID: 1000010056762816, guid: fcbcdad4411dafb489c6994b483d02a6, type: 3}
      propertyPath: m_StaticEditorFlags
      value: 4294967295
      objectReference: {fileID: 0}
    - target: {fileID: 1000010720145162, guid: fcbcdad4411dafb489c6994b483d02a6, type: 3}
      propertyPath: m_Name
      value: UNIConcrete_wall_v1_W_3 (2)
      objectReference: {fileID: 0}
    - target: {fileID: 1000010720145162, guid: fcbcdad4411dafb489c6994b483d02a6, type: 3}
      propertyPath: m_StaticEditorFlags
      value: 4294967295
      objectReference: {fileID: 0}
    - target: {fileID: 1000012954073910, guid: fcbcdad4411dafb489c6994b483d02a6, type: 3}
      propertyPath: m_StaticEditorFlags
      value: 4294967295
      objectReference: {fileID: 0}
    - target: {fileID: 4000010940606070, guid: fcbcdad4411dafb489c6994b483d02a6, type: 3}
      propertyPath: m_RootOrder
      value: 1
      objectReference: {fileID: 0}
    - target: {fileID: 4000010940606070, guid: fcbcdad4411dafb489c6994b483d02a6, type: 3}
      propertyPath: m_LocalScale.y
      value: 1
      objectReference: {fileID: 0}
    - target: {fileID: 4000010940606070, guid: fcbcdad4411dafb489c6994b483d02a6, type: 3}
      propertyPath: m_LocalScale.z
      value: 1
      objectReference: {fileID: 0}
    - target: {fileID: 4000010940606070, guid: fcbcdad4411dafb489c6994b483d02a6, type: 3}
      propertyPath: m_LocalPosition.x
      value: 10.171801
      objectReference: {fileID: 0}
    - target: {fileID: 4000010940606070, guid: fcbcdad4411dafb489c6994b483d02a6, type: 3}
      propertyPath: m_LocalPosition.y
      value: 0.9272003
      objectReference: {fileID: 0}
    - target: {fileID: 4000010940606070, guid: fcbcdad4411dafb489c6994b483d02a6, type: 3}
      propertyPath: m_LocalPosition.z
      value: -20.222
      objectReference: {fileID: 0}
    - target: {fileID: 4000010940606070, guid: fcbcdad4411dafb489c6994b483d02a6, type: 3}
      propertyPath: m_LocalRotation.w
      value: 1
      objectReference: {fileID: 0}
    - target: {fileID: 4000010940606070, guid: fcbcdad4411dafb489c6994b483d02a6, type: 3}
      propertyPath: m_LocalRotation.x
      value: -0
      objectReference: {fileID: 0}
    - target: {fileID: 4000010940606070, guid: fcbcdad4411dafb489c6994b483d02a6, type: 3}
      propertyPath: m_LocalRotation.y
      value: -0
      objectReference: {fileID: 0}
    - target: {fileID: 4000010940606070, guid: fcbcdad4411dafb489c6994b483d02a6, type: 3}
      propertyPath: m_LocalRotation.z
      value: -0
      objectReference: {fileID: 0}
    - target: {fileID: 4000010940606070, guid: fcbcdad4411dafb489c6994b483d02a6, type: 3}
      propertyPath: m_LocalEulerAnglesHint.x
      value: 0
      objectReference: {fileID: 0}
    - target: {fileID: 4000010940606070, guid: fcbcdad4411dafb489c6994b483d02a6, type: 3}
      propertyPath: m_LocalEulerAnglesHint.y
      value: 0
      objectReference: {fileID: 0}
    - target: {fileID: 4000010940606070, guid: fcbcdad4411dafb489c6994b483d02a6, type: 3}
      propertyPath: m_LocalEulerAnglesHint.z
      value: 0
      objectReference: {fileID: 0}
    m_RemovedComponents: []
  m_SourcePrefab: {fileID: 100100000, guid: fcbcdad4411dafb489c6994b483d02a6, type: 3}
--- !u!4 &457168671 stripped
Transform:
  m_CorrespondingSourceObject: {fileID: 4000010940606070, guid: fcbcdad4411dafb489c6994b483d02a6, type: 3}
  m_PrefabInstance: {fileID: 457168670}
  m_PrefabAsset: {fileID: 0}
--- !u!1001 &610088127
PrefabInstance:
  m_ObjectHideFlags: 0
  serializedVersion: 2
  m_Modification:
    m_TransformParent: {fileID: 760367029}
    m_Modifications:
    - target: {fileID: 1000010190339526, guid: 7b4f0314f4e30c94185e84a096c302bc, type: 3}
      propertyPath: m_Name
      value: UNIConcrete_wall_v1_S_R_2 (1)
      objectReference: {fileID: 0}
    - target: {fileID: 1000010190339526, guid: 7b4f0314f4e30c94185e84a096c302bc, type: 3}
      propertyPath: m_StaticEditorFlags
      value: 4294967295
      objectReference: {fileID: 0}
    - target: {fileID: 1000010958526146, guid: 7b4f0314f4e30c94185e84a096c302bc, type: 3}
      propertyPath: m_StaticEditorFlags
      value: 4294967295
      objectReference: {fileID: 0}
    - target: {fileID: 1000011232856682, guid: 7b4f0314f4e30c94185e84a096c302bc, type: 3}
      propertyPath: m_StaticEditorFlags
      value: 4294967295
      objectReference: {fileID: 0}
    - target: {fileID: 4000010313559602, guid: 7b4f0314f4e30c94185e84a096c302bc, type: 3}
      propertyPath: m_RootOrder
      value: 0
      objectReference: {fileID: 0}
    - target: {fileID: 4000010313559602, guid: 7b4f0314f4e30c94185e84a096c302bc, type: 3}
      propertyPath: m_LocalScale.y
      value: 1
      objectReference: {fileID: 0}
    - target: {fileID: 4000010313559602, guid: 7b4f0314f4e30c94185e84a096c302bc, type: 3}
      propertyPath: m_LocalScale.z
      value: 1
      objectReference: {fileID: 0}
    - target: {fileID: 4000010313559602, guid: 7b4f0314f4e30c94185e84a096c302bc, type: 3}
      propertyPath: m_LocalPosition.x
      value: 5.000731
      objectReference: {fileID: 0}
    - target: {fileID: 4000010313559602, guid: 7b4f0314f4e30c94185e84a096c302bc, type: 3}
      propertyPath: m_LocalPosition.y
      value: 0.92761993
      objectReference: {fileID: 0}
    - target: {fileID: 4000010313559602, guid: 7b4f0314f4e30c94185e84a096c302bc, type: 3}
      propertyPath: m_LocalPosition.z
      value: -9.521426
      objectReference: {fileID: 0}
    - target: {fileID: 4000010313559602, guid: 7b4f0314f4e30c94185e84a096c302bc, type: 3}
      propertyPath: m_LocalRotation.w
      value: 1
      objectReference: {fileID: 0}
    - target: {fileID: 4000010313559602, guid: 7b4f0314f4e30c94185e84a096c302bc, type: 3}
      propertyPath: m_LocalRotation.x
      value: -0
      objectReference: {fileID: 0}
    - target: {fileID: 4000010313559602, guid: 7b4f0314f4e30c94185e84a096c302bc, type: 3}
      propertyPath: m_LocalRotation.y
      value: -0
      objectReference: {fileID: 0}
    - target: {fileID: 4000010313559602, guid: 7b4f0314f4e30c94185e84a096c302bc, type: 3}
      propertyPath: m_LocalRotation.z
      value: -0
      objectReference: {fileID: 0}
    - target: {fileID: 4000010313559602, guid: 7b4f0314f4e30c94185e84a096c302bc, type: 3}
      propertyPath: m_LocalEulerAnglesHint.x
      value: 0
      objectReference: {fileID: 0}
    - target: {fileID: 4000010313559602, guid: 7b4f0314f4e30c94185e84a096c302bc, type: 3}
      propertyPath: m_LocalEulerAnglesHint.y
      value: 0
      objectReference: {fileID: 0}
    - target: {fileID: 4000010313559602, guid: 7b4f0314f4e30c94185e84a096c302bc, type: 3}
      propertyPath: m_LocalEulerAnglesHint.z
      value: 0
      objectReference: {fileID: 0}
    - target: {fileID: 4000010667440056, guid: 7b4f0314f4e30c94185e84a096c302bc, type: 3}
      propertyPath: m_LocalRotation.x
      value: 0
      objectReference: {fileID: 0}
    - target: {fileID: 4000010667440056, guid: 7b4f0314f4e30c94185e84a096c302bc, type: 3}
      propertyPath: m_LocalRotation.y
      value: 0
      objectReference: {fileID: 0}
    - target: {fileID: 4000010667440056, guid: 7b4f0314f4e30c94185e84a096c302bc, type: 3}
      propertyPath: m_LocalRotation.z
      value: 0
      objectReference: {fileID: 0}
    - target: {fileID: 4000012476010652, guid: 7b4f0314f4e30c94185e84a096c302bc, type: 3}
      propertyPath: m_LocalRotation.x
      value: 0
      objectReference: {fileID: 0}
    - target: {fileID: 4000012476010652, guid: 7b4f0314f4e30c94185e84a096c302bc, type: 3}
      propertyPath: m_LocalRotation.y
      value: 0
      objectReference: {fileID: 0}
    - target: {fileID: 4000012476010652, guid: 7b4f0314f4e30c94185e84a096c302bc, type: 3}
      propertyPath: m_LocalRotation.z
      value: 0
      objectReference: {fileID: 0}
    m_RemovedComponents: []
  m_SourcePrefab: {fileID: 100100000, guid: 7b4f0314f4e30c94185e84a096c302bc, type: 3}
--- !u!4 &610088128 stripped
Transform:
  m_CorrespondingSourceObject: {fileID: 4000010313559602, guid: 7b4f0314f4e30c94185e84a096c302bc, type: 3}
  m_PrefabInstance: {fileID: 610088127}
  m_PrefabAsset: {fileID: 0}
--- !u!1 &705507993
GameObject:
  m_ObjectHideFlags: 0
  m_CorrespondingSourceObject: {fileID: 0}
  m_PrefabInstance: {fileID: 0}
  m_PrefabAsset: {fileID: 0}
  serializedVersion: 6
  m_Component:
  - component: {fileID: 705507995}
  - component: {fileID: 705507994}
  m_Layer: 0
  m_Name: Directional Light
  m_TagString: Untagged
  m_Icon: {fileID: 0}
  m_NavMeshLayer: 0
  m_StaticEditorFlags: 0
  m_IsActive: 1
--- !u!108 &705507994
Light:
  m_ObjectHideFlags: 0
  m_CorrespondingSourceObject: {fileID: 0}
  m_PrefabInstance: {fileID: 0}
  m_PrefabAsset: {fileID: 0}
  m_GameObject: {fileID: 705507993}
  m_Enabled: 1
  serializedVersion: 10
  m_Type: 1
  m_Shape: 0
  m_Color: {r: 1, g: 0.95686275, b: 0.8392157, a: 1}
  m_Intensity: 1
  m_Range: 10
  m_SpotAngle: 30
  m_InnerSpotAngle: 21.80208
  m_CookieSize: 10
  m_Shadows:
    m_Type: 2
    m_Resolution: -1
    m_CustomResolution: -1
    m_Strength: 1
    m_Bias: 0.05
    m_NormalBias: 0.4
    m_NearPlane: 0.2
    m_CullingMatrixOverride:
      e00: 1
      e01: 0
      e02: 0
      e03: 0
      e10: 0
      e11: 1
      e12: 0
      e13: 0
      e20: 0
      e21: 0
      e22: 1
      e23: 0
      e30: 0
      e31: 0
      e32: 0
      e33: 1
    m_UseCullingMatrixOverride: 0
  m_Cookie: {fileID: 0}
  m_DrawHalo: 0
  m_Flare: {fileID: 0}
  m_RenderMode: 0
  m_CullingMask:
    serializedVersion: 2
    m_Bits: 4294967295
  m_RenderingLayerMask: 1
  m_Lightmapping: 1
  m_LightShadowCasterMode: 0
  m_AreaSize: {x: 1, y: 1}
  m_BounceIntensity: 1
  m_ColorTemperature: 6570
  m_UseColorTemperature: 0
  m_BoundingSphereOverride: {x: 0, y: 0, z: 0, w: 0}
  m_UseBoundingSphereOverride: 0
  m_UseViewFrustumForShadowCasterCull: 1
  m_ShadowRadius: 0
  m_ShadowAngle: 0
--- !u!4 &705507995
Transform:
  m_ObjectHideFlags: 0
  m_CorrespondingSourceObject: {fileID: 0}
  m_PrefabInstance: {fileID: 0}
  m_PrefabAsset: {fileID: 0}
  m_GameObject: {fileID: 705507993}
  m_LocalRotation: {x: 0.40821788, y: -0.23456968, z: 0.10938163, w: 0.8754261}
  m_LocalPosition: {x: 0, y: 3, z: 0}
  m_LocalScale: {x: 1, y: 1, z: 1}
  m_ConstrainProportionsScale: 0
  m_Children: []
  m_Father: {fileID: 0}
  m_RootOrder: 1
  m_LocalEulerAnglesHint: {x: 50, y: -30, z: 0}
--- !u!1 &760367028
GameObject:
  m_ObjectHideFlags: 0
  m_CorrespondingSourceObject: {fileID: 0}
  m_PrefabInstance: {fileID: 0}
  m_PrefabAsset: {fileID: 0}
  serializedVersion: 6
  m_Component:
  - component: {fileID: 760367029}
  m_Layer: 0
  m_Name: Level
  m_TagString: Untagged
  m_Icon: {fileID: 0}
  m_NavMeshLayer: 0
  m_StaticEditorFlags: 0
  m_IsActive: 1
--- !u!4 &760367029
Transform:
  m_ObjectHideFlags: 0
  m_CorrespondingSourceObject: {fileID: 0}
  m_PrefabInstance: {fileID: 0}
  m_PrefabAsset: {fileID: 0}
  m_GameObject: {fileID: 760367028}
  m_LocalRotation: {x: 0, y: 0, z: 0, w: 1}
  m_LocalPosition: {x: 0, y: 0, z: 0}
  m_LocalScale: {x: 1, y: 1, z: 1}
  m_ConstrainProportionsScale: 0
  m_Children:
  - {fileID: 610088128}
  - {fileID: 457168671}
  - {fileID: 1460226484}
  - {fileID: 1108443297}
  m_Father: {fileID: 0}
  m_RootOrder: 2
  m_LocalEulerAnglesHint: {x: 0, y: 0, z: 0}
--- !u!1 &963194225
GameObject:
  m_ObjectHideFlags: 0
  m_CorrespondingSourceObject: {fileID: 0}
  m_PrefabInstance: {fileID: 0}
  m_PrefabAsset: {fileID: 0}
  serializedVersion: 6
  m_Component:
  - component: {fileID: 963194228}
  - component: {fileID: 963194227}
  - component: {fileID: 963194226}
  m_Layer: 0
  m_Name: Main Camera
  m_TagString: MainCamera
  m_Icon: {fileID: 0}
  m_NavMeshLayer: 0
  m_StaticEditorFlags: 0
  m_IsActive: 1
--- !u!81 &963194226
AudioListener:
  m_ObjectHideFlags: 0
  m_CorrespondingSourceObject: {fileID: 0}
  m_PrefabInstance: {fileID: 0}
  m_PrefabAsset: {fileID: 0}
  m_GameObject: {fileID: 963194225}
  m_Enabled: 1
--- !u!20 &963194227
Camera:
  m_ObjectHideFlags: 0
  m_CorrespondingSourceObject: {fileID: 0}
  m_PrefabInstance: {fileID: 0}
  m_PrefabAsset: {fileID: 0}
  m_GameObject: {fileID: 963194225}
  m_Enabled: 1
  serializedVersion: 2
  m_ClearFlags: 1
  m_BackGroundColor: {r: 0.19215687, g: 0.3019608, b: 0.4745098, a: 0}
  m_projectionMatrixMode: 1
  m_GateFitMode: 2
  m_FOVAxisMode: 0
  m_SensorSize: {x: 36, y: 24}
  m_LensShift: {x: 0, y: 0}
  m_FocalLength: 50
  m_NormalizedViewPortRect:
    serializedVersion: 2
    x: 0
    y: 0
    width: 1
    height: 1
  near clip plane: 0.3
  far clip plane: 1000
  field of view: 60
  orthographic: 0
  orthographic size: 5
  m_Depth: -1
  m_CullingMask:
    serializedVersion: 2
    m_Bits: 4294967295
  m_RenderingPath: -1
  m_TargetTexture: {fileID: 0}
  m_TargetDisplay: 0
  m_TargetEye: 3
  m_HDR: 1
  m_AllowMSAA: 1
  m_AllowDynamicResolution: 0
  m_ForceIntoRT: 0
  m_OcclusionCulling: 1
  m_StereoConvergence: 10
  m_StereoSeparation: 0.022
--- !u!4 &963194228
Transform:
  m_ObjectHideFlags: 0
  m_CorrespondingSourceObject: {fileID: 0}
  m_PrefabInstance: {fileID: 0}
  m_PrefabAsset: {fileID: 0}
  m_GameObject: {fileID: 963194225}
  m_LocalRotation: {x: 0.16112684, y: -0.66583544, z: 0.15050451, w: 0.71277606}
  m_LocalPosition: {x: 11.41, y: 4.4, z: -27.35}
  m_LocalScale: {x: 1, y: 1, z: 1}
  m_ConstrainProportionsScale: 0
  m_Children: []
  m_Father: {fileID: 0}
  m_RootOrder: 0
  m_LocalEulerAnglesHint: {x: 25.475, y: -86.1, z: -0.001}
--- !u!1001 &1108443296
PrefabInstance:
  m_ObjectHideFlags: 0
  serializedVersion: 2
  m_Modification:
    m_TransformParent: {fileID: 760367029}
    m_Modifications:
    - target: {fileID: 1000010491514970, guid: 9a8a037e5343199458bcacb9d8803837, type: 3}
      propertyPath: m_StaticEditorFlags
      value: 4294967295
      objectReference: {fileID: 0}
    - target: {fileID: 1000011254384922, guid: 9a8a037e5343199458bcacb9d8803837, type: 3}
      propertyPath: m_StaticEditorFlags
      value: 4294967295
      objectReference: {fileID: 0}
    - target: {fileID: 1000012491009290, guid: 9a8a037e5343199458bcacb9d8803837, type: 3}
      propertyPath: m_StaticEditorFlags
      value: 4294967295
      objectReference: {fileID: 0}
    - target: {fileID: 1000013012713382, guid: 9a8a037e5343199458bcacb9d8803837, type: 3}
      propertyPath: m_StaticEditorFlags
      value: 4294967295
      objectReference: {fileID: 0}
    - target: {fileID: 4000012067424442, guid: 9a8a037e5343199458bcacb9d8803837, type: 3}
      propertyPath: m_RootOrder
      value: 3
      objectReference: {fileID: 0}
    - target: {fileID: 4000012067424442, guid: 9a8a037e5343199458bcacb9d8803837, type: 3}
      propertyPath: m_LocalPosition.x
      value: 0.46000051
      objectReference: {fileID: 0}
    - target: {fileID: 4000012067424442, guid: 9a8a037e5343199458bcacb9d8803837, type: 3}
      propertyPath: m_LocalPosition.y
      value: 1.6280003
      objectReference: {fileID: 0}
    - target: {fileID: 4000012067424442, guid: 9a8a037e5343199458bcacb9d8803837, type: 3}
      propertyPath: m_LocalPosition.z
      value: -28.02
      objectReference: {fileID: 0}
    - target: {fileID: 4000012067424442, guid: 9a8a037e5343199458bcacb9d8803837, type: 3}
      propertyPath: m_LocalRotation.w
      value: 1
      objectReference: {fileID: 0}
    - target: {fileID: 4000012067424442, guid: 9a8a037e5343199458bcacb9d8803837, type: 3}
      propertyPath: m_LocalRotation.x
      value: -0
      objectReference: {fileID: 0}
    - target: {fileID: 4000012067424442, guid: 9a8a037e5343199458bcacb9d8803837, type: 3}
      propertyPath: m_LocalRotation.y
      value: -0
      objectReference: {fileID: 0}
    - target: {fileID: 4000012067424442, guid: 9a8a037e5343199458bcacb9d8803837, type: 3}
      propertyPath: m_LocalRotation.z
      value: -0
      objectReference: {fileID: 0}
    - target: {fileID: 4000013656117752, guid: 9a8a037e5343199458bcacb9d8803837, type: 3}
      propertyPath: m_LocalRotation.w
      value: 1
      objectReference: {fileID: 0}
    - target: {fileID: 4000013963034346, guid: 9a8a037e5343199458bcacb9d8803837, type: 3}
      propertyPath: m_LocalRotation.w
      value: 1
      objectReference: {fileID: 0}
    m_RemovedComponents: []
  m_SourcePrefab: {fileID: 100100000, guid: 9a8a037e5343199458bcacb9d8803837, type: 3}
--- !u!4 &1108443297 stripped
Transform:
  m_CorrespondingSourceObject: {fileID: 4000012067424442, guid: 9a8a037e5343199458bcacb9d8803837, type: 3}
  m_PrefabInstance: {fileID: 1108443296}
  m_PrefabAsset: {fileID: 0}
--- !u!1001 &1460226483
PrefabInstance:
  m_ObjectHideFlags: 0
  serializedVersion: 2
  m_Modification:
    m_TransformParent: {fileID: 760367029}
    m_Modifications:
    - target: {fileID: 1000010056762816, guid: fcbcdad4411dafb489c6994b483d02a6, type: 3}
      propertyPath: m_StaticEditorFlags
      value: 4294967295
      objectReference: {fileID: 0}
    - target: {fileID: 1000010720145162, guid: fcbcdad4411dafb489c6994b483d02a6, type: 3}
      propertyPath: m_Name
      value: UNIConcrete_wall_v1_W_3 (3)
      objectReference: {fileID: 0}
    - target: {fileID: 1000010720145162, guid: fcbcdad4411dafb489c6994b483d02a6, type: 3}
      propertyPath: m_StaticEditorFlags
      value: 4294967295
      objectReference: {fileID: 0}
    - target: {fileID: 1000012954073910, guid: fcbcdad4411dafb489c6994b483d02a6, type: 3}
      propertyPath: m_StaticEditorFlags
      value: 4294967295
      objectReference: {fileID: 0}
    - target: {fileID: 4000010940606070, guid: fcbcdad4411dafb489c6994b483d02a6, type: 3}
      propertyPath: m_RootOrder
      value: 2
      objectReference: {fileID: 0}
    - target: {fileID: 4000010940606070, guid: fcbcdad4411dafb489c6994b483d02a6, type: 3}
      propertyPath: m_LocalScale.y
      value: 1
      objectReference: {fileID: 0}
    - target: {fileID: 4000010940606070, guid: fcbcdad4411dafb489c6994b483d02a6, type: 3}
      propertyPath: m_LocalScale.z
      value: 1
      objectReference: {fileID: 0}
    - target: {fileID: 4000010940606070, guid: fcbcdad4411dafb489c6994b483d02a6, type: 3}
      propertyPath: m_LocalPosition.x
      value: 10.1717
      objectReference: {fileID: 0}
    - target: {fileID: 4000010940606070, guid: fcbcdad4411dafb489c6994b483d02a6, type: 3}
      propertyPath: m_LocalPosition.y
      value: 0.9272003
      objectReference: {fileID: 0}
    - target: {fileID: 4000010940606070, guid: fcbcdad4411dafb489c6994b483d02a6, type: 3}
      propertyPath: m_LocalPosition.z
      value: -30.222
      objectReference: {fileID: 0}
    - target: {fileID: 4000010940606070, guid: fcbcdad4411dafb489c6994b483d02a6, type: 3}
      propertyPath: m_LocalRotation.w
      value: 1
      objectReference: {fileID: 0}
    - target: {fileID: 4000010940606070, guid: fcbcdad4411dafb489c6994b483d02a6, type: 3}
      propertyPath: m_LocalRotation.x
      value: -0
      objectReference: {fileID: 0}
    - target: {fileID: 4000010940606070, guid: fcbcdad4411dafb489c6994b483d02a6, type: 3}
      propertyPath: m_LocalRotation.y
      value: -0
      objectReference: {fileID: 0}
    - target: {fileID: 4000010940606070, guid: fcbcdad4411dafb489c6994b483d02a6, type: 3}
      propertyPath: m_LocalRotation.z
      value: -0
      objectReference: {fileID: 0}
    - target: {fileID: 4000010940606070, guid: fcbcdad4411dafb489c6994b483d02a6, type: 3}
      propertyPath: m_LocalEulerAnglesHint.x
      value: 0
      objectReference: {fileID: 0}
    - target: {fileID: 4000010940606070, guid: fcbcdad4411dafb489c6994b483d02a6, type: 3}
      propertyPath: m_LocalEulerAnglesHint.y
      value: 0
      objectReference: {fileID: 0}
    - target: {fileID: 4000010940606070, guid: fcbcdad4411dafb489c6994b483d02a6, type: 3}
      propertyPath: m_LocalEulerAnglesHint.z
      value: 0
      objectReference: {fileID: 0}
    m_RemovedComponents: []
  m_SourcePrefab: {fileID: 100100000, guid: fcbcdad4411dafb489c6994b483d02a6, type: 3}
--- !u!4 &1460226484 stripped
Transform:
  m_CorrespondingSourceObject: {fileID: 4000010940606070, guid: fcbcdad4411dafb489c6994b483d02a6, type: 3}
  m_PrefabInstance: {fileID: 1460226483}
  m_PrefabAsset: {fileID: 0}
--- !u!1 &1756271969
GameObject:
  m_ObjectHideFlags: 0
  m_CorrespondingSourceObject: {fileID: 0}
  m_PrefabInstance: {fileID: 0}
  m_PrefabAsset: {fileID: 0}
  serializedVersion: 6
  m_Component:
  - component: {fileID: 1756271971}
  - component: {fileID: 1756271970}
  m_Layer: 0
  m_Name: Manager
  m_TagString: Untagged
  m_Icon: {fileID: 0}
  m_NavMeshLayer: 0
  m_StaticEditorFlags: 0
  m_IsActive: 1
--- !u!114 &1756271970
MonoBehaviour:
  m_ObjectHideFlags: 0
  m_CorrespondingSourceObject: {fileID: 0}
  m_PrefabInstance: {fileID: 0}
  m_PrefabAsset: {fileID: 0}
  m_GameObject: {fileID: 1756271969}
  m_Enabled: 1
  m_EditorHideFlags: 0
  m_Script: {fileID: 11500000, guid: f92bc382beb6bb54dbc4ed64a10bba84, type: 3}
  m_Name: 
  m_EditorClassIdentifier: 
  animator: {fileID: 72604608}
  animator2: {fileID: 411034982}
--- !u!4 &1756271971
Transform:
  m_ObjectHideFlags: 0
  m_CorrespondingSourceObject: {fileID: 0}
  m_PrefabInstance: {fileID: 0}
  m_PrefabAsset: {fileID: 0}
  m_GameObject: {fileID: 1756271969}
  m_LocalRotation: {x: 0, y: 0, z: 0, w: 1}
  m_LocalPosition: {x: -11.167944, y: -5.13158, z: -25.60563}
  m_LocalScale: {x: 1, y: 1, z: 1}
  m_ConstrainProportionsScale: 0
  m_Children: []
  m_Father: {fileID: 0}
  m_RootOrder: 5
  m_LocalEulerAnglesHint: {x: 0, y: 0, z: 0}
--- !u!1001 &3967033776399610217
PrefabInstance:
  m_ObjectHideFlags: 0
  serializedVersion: 2
  m_Modification:
    m_TransformParent: {fileID: 0}
    m_Modifications:
    - target: {fileID: 3967033777777033324, guid: c20b9390f02e1c988bb5720fadc0eb7c, type: 3}
      propertyPath: m_Name
      value: Police
      objectReference: {fileID: 0}
    - target: {fileID: 3967033777777033327, guid: c20b9390f02e1c988bb5720fadc0eb7c, type: 3}
      propertyPath: m_RootOrder
      value: 3
      objectReference: {fileID: 0}
    - target: {fileID: 3967033777777033327, guid: c20b9390f02e1c988bb5720fadc0eb7c, type: 3}
      propertyPath: m_LocalPosition.x
      value: 8.14
      objectReference: {fileID: 0}
    - target: {fileID: 3967033777777033327, guid: c20b9390f02e1c988bb5720fadc0eb7c, type: 3}
      propertyPath: m_LocalPosition.y
      value: 1.6
      objectReference: {fileID: 0}
    - target: {fileID: 3967033777777033327, guid: c20b9390f02e1c988bb5720fadc0eb7c, type: 3}
      propertyPath: m_LocalPosition.z
      value: -27.91
      objectReference: {fileID: 0}
    - target: {fileID: 3967033777777033327, guid: c20b9390f02e1c988bb5720fadc0eb7c, type: 3}
      propertyPath: m_LocalRotation.w
      value: 1
      objectReference: {fileID: 0}
    - target: {fileID: 3967033777777033327, guid: c20b9390f02e1c988bb5720fadc0eb7c, type: 3}
      propertyPath: m_LocalRotation.x
      value: 0
      objectReference: {fileID: 0}
    - target: {fileID: 3967033777777033327, guid: c20b9390f02e1c988bb5720fadc0eb7c, type: 3}
      propertyPath: m_LocalRotation.y
      value: 0
      objectReference: {fileID: 0}
    - target: {fileID: 3967033777777033327, guid: c20b9390f02e1c988bb5720fadc0eb7c, type: 3}
      propertyPath: m_LocalRotation.z
      value: 0
      objectReference: {fileID: 0}
    - target: {fileID: 3967033777777033327, guid: c20b9390f02e1c988bb5720fadc0eb7c, type: 3}
      propertyPath: m_LocalEulerAnglesHint.x
      value: 0
      objectReference: {fileID: 0}
    - target: {fileID: 3967033777777033327, guid: c20b9390f02e1c988bb5720fadc0eb7c, type: 3}
      propertyPath: m_LocalEulerAnglesHint.y
      value: 0
      objectReference: {fileID: 0}
    - target: {fileID: 3967033777777033327, guid: c20b9390f02e1c988bb5720fadc0eb7c, type: 3}
      propertyPath: m_LocalEulerAnglesHint.z
      value: 0
      objectReference: {fileID: 0}
    m_RemovedComponents: []
  m_SourcePrefab: {fileID: 100100000, guid: c20b9390f02e1c988bb5720fadc0eb7c, type: 3}
--- !u!1001 &8315956545888933988
PrefabInstance:
  m_ObjectHideFlags: 0
  serializedVersion: 2
  m_Modification:
    m_TransformParent: {fileID: 0}
    m_Modifications:
    - target: {fileID: 8315956546764020291, guid: 3721399d4363f1ee8a87dcf026a5f6ae, type: 3}
      propertyPath: m_Name
      value: Hooligan
      objectReference: {fileID: 0}
    - target: {fileID: 8315956546764020300, guid: 3721399d4363f1ee8a87dcf026a5f6ae, type: 3}
      propertyPath: m_RootOrder
      value: 4
      objectReference: {fileID: 0}
    - target: {fileID: 8315956546764020300, guid: 3721399d4363f1ee8a87dcf026a5f6ae, type: 3}
      propertyPath: m_LocalPosition.x
      value: 8.11
      objectReference: {fileID: 0}
    - target: {fileID: 8315956546764020300, guid: 3721399d4363f1ee8a87dcf026a5f6ae, type: 3}
      propertyPath: m_LocalPosition.y
      value: 1.64
      objectReference: {fileID: 0}
    - target: {fileID: 8315956546764020300, guid: 3721399d4363f1ee8a87dcf026a5f6ae, type: 3}
      propertyPath: m_LocalPosition.z
      value: -26.739
      objectReference: {fileID: 0}
    - target: {fileID: 8315956546764020300, guid: 3721399d4363f1ee8a87dcf026a5f6ae, type: 3}
      propertyPath: m_LocalRotation.w
      value: 0
      objectReference: {fileID: 0}
    - target: {fileID: 8315956546764020300, guid: 3721399d4363f1ee8a87dcf026a5f6ae, type: 3}
      propertyPath: m_LocalRotation.x
      value: 0
      objectReference: {fileID: 0}
    - target: {fileID: 8315956546764020300, guid: 3721399d4363f1ee8a87dcf026a5f6ae, type: 3}
      propertyPath: m_LocalRotation.y
      value: 1
      objectReference: {fileID: 0}
    - target: {fileID: 8315956546764020300, guid: 3721399d4363f1ee8a87dcf026a5f6ae, type: 3}
      propertyPath: m_LocalRotation.z
      value: 0
      objectReference: {fileID: 0}
    - target: {fileID: 8315956546764020300, guid: 3721399d4363f1ee8a87dcf026a5f6ae, type: 3}
      propertyPath: m_LocalEulerAnglesHint.x
      value: 0
      objectReference: {fileID: 0}
    - target: {fileID: 8315956546764020300, guid: 3721399d4363f1ee8a87dcf026a5f6ae, type: 3}
      propertyPath: m_LocalEulerAnglesHint.y
      value: 180
      objectReference: {fileID: 0}
    - target: {fileID: 8315956546764020300, guid: 3721399d4363f1ee8a87dcf026a5f6ae, type: 3}
      propertyPath: m_LocalEulerAnglesHint.z
      value: 0
      objectReference: {fileID: 0}
    m_RemovedComponents: []
  m_SourcePrefab: {fileID: 100100000, guid: 3721399d4363f1ee8a87dcf026a5f6ae, type: 3}
